<svg width="900" height="275" xmlns="http://www.w3.org/2000/svg">
 <!-- Created with Method Draw - http://github.com/duopixel/Method-Draw/ -->

 <g>
  <title>background</title>
  <rect x="-1" y="-1" width="900" height="275" id="canvas_background" fill="#1aab72"/>
 </g>
 <g>
  <title>Layer 1</title>
  <ellipse fill="#5bf2ad" stroke="#000" stroke-width="0" cx="146.5" cy="137.4" id="svg_2" rx="120" ry="120"/>
  <ellipse fill="#007f00" stroke="#1aab72" stroke-width="4" cx="146.5" cy="93.35" id="svg_3" rx="24" ry="24" fill-opacity="0"/>
  <ellipse fill="#007f00" stroke="#1aab72" stroke-width="4" cx="146.5" cy="190" id="svg_4" rx="16" ry="16" fill-opacity="0"/>
  <ellipse fill="#5bf2ad" stroke="#1aab72" stroke-width="4" cx="89.2" cy="166.1" id="svg_5" rx="16" ry="16" fill-opacity="0"/>
  <ellipse fill="#007f00" stroke="#1aab72" stroke-width="4" cx="204.12" cy="166.1" id="svg_6" rx="16" ry="16" fill-opacity="0"/>
  <line fill="none" stroke="#1aab72" stroke-width="4" x1="131.6" y1="112.51" x2="98.36" y2="152.53" id="svg_7" stroke-linejoin="null" stroke-linecap="null"/>
  <line fill="none" stroke="#1aab72" stroke-width="4" x1="146.54" y1="117.53" x2="146.3" y2="173.505" id="svg_8" stroke-linejoin="null" stroke-linecap="null"/>
  <line fill="none" stroke="#1aab72" stroke-width="4" x1="162.07" y1="112.51" x2="192.5" y2="152.53" id="svg_9" stroke-linejoin="null" stroke-linecap="null"/>
  <text fill="#5bf2ad" x="327.5" y="167.1" id="svg_11" font-size="110" font-family="Crescent" text-anchor="start">mangrove</text>
 </g>
</svg>
